<?xml version="1.0" standalone="no"?>
<!DOCTYPE svg PUBLIC "-//W3C//DTD SVG 20010904//EN"
 "http://www.w3.org/TR/2001/REC-SVG-20010904/DTD/svg10.dtd">
<svg version="1.0" xmlns="http://www.w3.org/2000/svg"
 width="700.000000pt" height="700.000000pt" viewBox="0 0 700.000000 700.000000"
 preserveAspectRatio="xMidYMid meet">
<metadata>
Created by potrace 1.11, written by Peter Selinger 2001-2013
</metadata>
<g transform="translate(0.000000,700.000000) scale(0.100000,-0.100000)"
fill="#000000" stroke="none">
<path d="M3239 6966 c-2 -2 -38 -7 -79 -10 -41 -3 -84 -8 -95 -10 -11 -2 -42
-7 -70 -10 -481 -66 -996 -263 -1410 -539 -736 -490 -1258 -1234 -1460 -2080
-18 -78 -36 -158 -39 -177 -20 -120 -35 -234 -41 -290 -3 -36 -8 -87 -10 -115
-6 -60 -6 -416 0 -465 2 -19 6 -69 10 -110 19 -237 114 -661 187 -839 6 -14
12 -31 13 -37 7 -28 115 -271 163 -364 122 -235 299 -502 438 -659 411 -467
808 -754 1355 -981 184 -76 502 -169 669 -195 25 -4 52 -9 60 -10 191 -34 330
-45 575 -45 222 0 322 7 505 36 52 8 111 17 130 20 19 3 51 9 70 14 19 5 46
11 60 14 82 14 383 104 455 136 11 5 75 32 143 60 506 213 951 549 1327 1001
179 214 361 513 479 784 26 61 54 124 62 142 40 90 150 463 168 570 39 227 42
250 53 358 10 95 10 583 0 670 -5 39 -10 88 -13 110 -28 237 -111 567 -204
805 -12 30 -27 71 -35 90 -7 19 -20 49 -28 65 -8 17 -32 65 -52 108 -92 197
-267 478 -395 633 -14 17 -34 42 -44 55 -294 368 -739 717 -1187 932 -219 105
-495 202 -724 253 -94 21 -105 24 -140 29 -16 2 -43 7 -60 10 -64 11 -92 15
-145 21 -30 3 -68 8 -85 11 -35 6 -601 14 -606 9z"/>
</g>
</svg>
